<svg width="39" height="36" viewBox="0 0 39 36" fill="none" xmlns="http://www.w3.org/2000/svg">
<path d="M5 5.66666V0.666656H8.33333V5.66666H13.3333V8.99999H8.33333V14H5V8.99999H0V5.66666H5ZM10 15.6667V10.6667H15V5.66666H26.6667L29.7167 8.99999H35C36.8333 8.99999 38.3333 10.5 38.3333 12.3333V32.3333C38.3333 34.1667 36.8333 35.6667 35 35.6667H8.33333C6.5 35.6667 5 34.1667 5 32.3333V15.6667H10ZM21.6667 30.6667C26.2667 30.6667 30 26.9333 30 22.3333C30 17.7333 26.2667 14 21.6667 14C17.0667 14 13.3333 17.7333 13.3333 22.3333C13.3333 26.9333 17.0667 30.6667 21.6667 30.6667ZM16.3333 22.3333C16.3333 25.2833 18.7167 27.6667 21.6667 27.6667C24.6167 27.6667 27 25.2833 27 22.3333C27 19.3833 24.6167 17 21.6667 17C18.7167 17 16.3333 19.3833 16.3333 22.3333Z" fill="white"/>
</svg>
