<svg width="36" height="36" viewBox="0 0 36 36" fill="none" xmlns="http://www.w3.org/2000/svg">
<path d="M33 19C33 26.732 26.732 33 19 33C11.268 33 5 26.732 5 19C5 11.268 11.268 5 19 5C26.732 5 33 11.268 33 19Z" fill="#F56400" stroke="white" stroke-width="2"/>
<path d="M12.875 21.7812V24.125H15.2188L22.1312 17.2125L19.7875 14.8687L12.875 21.7812ZM23.9437 15.4C24.1875 15.1562 24.1875 14.7625 23.9437 14.5187L22.4813 13.0562C22.2375 12.8125 21.8437 12.8125 21.6 13.0562L20.4563 14.2L22.8 16.5437L23.9437 15.4Z" fill="white"/>
</svg>
