<svg width="20" height="17" viewBox="0 0 20 17" fill="none" xmlns="http://www.w3.org/2000/svg">
<path d="M0.833008 16.5001H19.1663L9.99967 0.666748L0.833008 16.5001ZM10.833 14.0001H9.16634V12.3334H10.833V14.0001ZM10.833 10.6667H9.16634V7.33341H10.833V10.6667Z" fill="#E90000"/>
</svg>
