<svg width="15" height="14" viewBox="0 0 15 14" fill="none" xmlns="http://www.w3.org/2000/svg">
<path d="M9.18896 12.3343L3.92133 7.00001L9.18896 1.66569L7.56727 0.0270385L0.666442 7.00001L7.56727 13.973L9.18896 12.3343Z" fill="#777777"/>
<path d="M15 12.3343L9.73237 7.00001L15 1.66569L13.3783 0.0270385L6.47748 7.00001L13.3783 13.973L15 12.3343Z" fill="#777777"/>
</svg>
