<svg width="60" height="60" viewBox="0 0 60 60" fill="none" xmlns="http://www.w3.org/2000/svg">
<rect width="60" height="60" rx="30" fill="#F56400"/>
<path d="M35.625 30C37.35 30 38.7375 28.6 38.7375 26.875C38.7375 25.15 37.35 23.75 35.625 23.75C33.9 23.75 32.5 25.15 32.5 26.875C32.5 28.6 33.9 30 35.625 30ZM26.25 28.75C28.325 28.75 29.9875 27.075 29.9875 25C29.9875 22.925 28.325 21.25 26.25 21.25C24.175 21.25 22.5 22.925 22.5 25C22.5 27.075 24.175 28.75 26.25 28.75ZM35.625 32.5C33.3375 32.5 28.75 33.65 28.75 35.9375V38.75H42.5V35.9375C42.5 33.65 37.9125 32.5 35.625 32.5ZM26.25 31.25C23.3375 31.25 17.5 32.7125 17.5 35.625V38.75H26.25V35.9375C26.25 34.875 26.6625 33.0125 29.2125 31.6C28.125 31.375 27.075 31.25 26.25 31.25Z" fill="white"/>
</svg>
