<svg width="12" height="15" viewBox="0 0 12 15" fill="none" xmlns="http://www.w3.org/2000/svg">
<path d="M6.83268 2.16667V7.16667H7.80768L5.99935 8.975L4.19102 7.16667H5.16602V2.16667H6.83268ZM8.49935 0.5H3.49935V5.5H0.166016L5.99935 11.3333L11.8327 5.5H8.49935V0.5ZM11.8327 13H0.166016V14.6667H11.8327V13Z" fill="#777777"/>
</svg>
