<svg width="42" height="42" viewBox="0 0 42 42" fill="none" xmlns="http://www.w3.org/2000/svg">
<circle cx="20" cy="20" r="18.5" fill="#F56400" stroke="white" stroke-width="3"/>
<path d="M13.25 23.9375V26.75H16.0625L24.3575 18.455L21.545 15.6425L13.25 23.9375ZM26.5325 16.28C26.825 15.9875 26.825 15.515 26.5325 15.2225L24.7775 13.4675C24.485 13.175 24.0125 13.175 23.72 13.4675L22.3475 14.84L25.16 17.6525L26.5325 16.28Z" fill="white"/>
</svg>
