<svg width="34" height="34" viewBox="0 0 34 34" fill="none" xmlns="http://www.w3.org/2000/svg">
<path d="M17 34C26.3888 34 34 26.3888 34 17C34 7.61116 26.3888 0 17 0C7.61116 0 0 7.61116 0 17C0 26.3888 7.61116 34 17 34Z" fill="#3B5998"/>
<path d="M21.2722 17.6655H18.2388V28.7786H13.6429V17.6655H11.457V13.7599H13.6429V11.2325C13.6429 9.42519 14.5014 6.59509 18.2797 6.59509L21.6841 6.60934V10.4004H19.214C18.8088 10.4004 18.2391 10.6028 18.2391 11.465V13.7635H21.6738L21.2722 17.6655Z" fill="white"/>
</svg>
