<svg width="24" height="18" viewBox="0 0 24 18" fill="none" xmlns="http://www.w3.org/2000/svg">
<path d="M12 2C7.41454 2 3.25621 4.50874 0.187788 8.58361C-0.062596 8.91745 -0.062596 9.38385 0.187788 9.7177C3.25621 13.7975 7.41454 16.3062 12 16.3062C16.5855 16.3062 20.7438 13.7975 23.8122 9.7226C24.0626 9.38876 24.0626 8.92236 23.8122 8.58852C20.7438 4.50874 16.5855 2 12 2ZM12.3289 14.1902C9.28506 14.3817 6.7714 11.8729 6.96287 8.82417C7.11998 6.31052 9.15741 4.27308 11.6711 4.11598C14.7149 3.92451 17.2286 6.43325 17.0371 9.48204C16.8751 11.9908 14.8377 14.0282 12.3289 14.1902ZM12.1767 11.8631C10.537 11.9662 9.18196 10.6161 9.28997 8.97637C9.37343 7.62135 10.4732 6.52654 11.8282 6.43816C13.4679 6.33507 14.823 7.68517 14.7149 9.32494C14.6266 10.6849 13.5268 11.7797 12.1767 11.8631Z" fill="#777777"/>
<line x1="4.37492" y1="0.669189" x2="19.3749" y2="17.6692" stroke="#777777"/>
</svg>
