<svg width="16" height="16" viewBox="0 0 16 16" fill="none" xmlns="http://www.w3.org/2000/svg">
<path d="M13.8333 2.16667V13.8333H2.16667V2.16667H13.8333ZM13.8333 0.5H2.16667C1.25 0.5 0.5 1.25 0.5 2.16667V13.8333C0.5 14.75 1.25 15.5 2.16667 15.5H13.8333C14.75 15.5 15.5 14.75 15.5 13.8333V2.16667C15.5 1.25 14.75 0.5 13.8333 0.5ZM9.78333 7.88333L7.28333 11.1083L5.5 8.95L3 12.1667H13L9.78333 7.88333Z" fill="#777777"/>
</svg>
