<svg width="19" height="16" viewBox="0 0 19 16" fill="none" xmlns="http://www.w3.org/2000/svg">
<path d="M2 6.5C1.17 6.5 0.5 7.17 0.5 8C0.5 8.83 1.17 9.5 2 9.5C2.83 9.5 3.5 8.83 3.5 8C3.5 7.17 2.83 6.5 2 6.5ZM2 0.5C1.17 0.5 0.5 1.17 0.5 2C0.5 2.83 1.17 3.5 2 3.5C2.83 3.5 3.5 2.83 3.5 2C3.5 1.17 2.83 0.5 2 0.5ZM2 12.5C1.17 12.5 0.5 13.18 0.5 14C0.5 14.82 1.18 15.5 2 15.5C2.82 15.5 3.5 14.82 3.5 14C3.5 13.18 2.83 12.5 2 12.5ZM5 15H19V13H5V15ZM5 9H19V7H5V9ZM5 1V3H19V1H5Z" fill="#777777"/>
</svg>
