<svg width="577" height="484" viewBox="0 0 577 484" fill="none" xmlns="http://www.w3.org/2000/svg">
<path d="M199.522 68.667C165.679 46.8269 124.77 26.6525 86.4645 39.4234C63.5928 47.012 45.5557 65.8907 35.1426 87.5458C24.7294 109.201 21.3823 133.632 21.0104 157.693C19.7088 244.684 58.7581 331.489 124.956 388.311C191.154 445.132 283.199 470.859 369.293 456.607C420.987 448.093 471.007 425.328 507.639 387.94C544.271 350.553 566.027 297.989 561.565 245.979C557.102 193.97 524.375 144.182 476.214 123.452C436.049 106.239 392.723 110.867 350.698 116.974C318.529 121.602 293.24 116.419 262.93 104.574C240.43 95.6896 219.976 81.8081 199.522 68.667Z" fill="#E8E8E8"/>
<path d="M282.084 167.688H220.907C218.861 167.688 217.002 169.354 217.002 171.575V203.965C217.002 206.001 218.675 207.852 220.907 207.852H282.084C284.129 207.852 285.989 206.186 285.989 203.965V171.575C285.989 169.354 284.315 167.688 282.084 167.688ZM248.613 201.189H223.51V173.981H248.613V201.189ZM264.419 201.189H254.192C253.448 201.189 252.704 200.448 252.704 199.708C252.704 198.968 253.448 198.227 254.192 198.227H264.419C265.163 198.227 265.906 198.968 265.906 199.708C265.906 200.448 265.163 201.189 264.419 201.189ZM278.179 195.266H254.192C253.448 195.266 252.704 194.526 252.704 193.785C252.704 193.045 253.448 192.305 254.192 192.305H278.179C278.923 192.305 279.667 193.045 279.667 193.785C279.667 194.526 278.923 195.266 278.179 195.266ZM278.179 189.158H254.192C253.448 189.158 252.704 188.418 252.704 187.677C252.704 186.937 253.448 186.197 254.192 186.197H278.179C278.923 186.197 279.667 186.937 279.667 187.677C279.667 188.418 278.923 189.158 278.179 189.158ZM252.704 181.57C252.704 180.829 253.448 180.089 254.192 180.089H264.419C265.163 180.089 265.906 180.829 265.906 181.57C265.906 182.31 265.163 183.05 264.419 183.05H254.192C253.262 183.05 252.704 182.31 252.704 181.57ZM278.179 176.942H254.192C253.448 176.942 252.704 176.202 252.704 175.462C252.704 174.721 253.448 173.981 254.192 173.981H278.179C278.923 173.981 279.667 174.721 279.667 175.462C279.667 176.202 278.923 176.942 278.179 176.942Z" fill="#777777"/>
<path d="M367.806 161.025V214.885C367.806 216.551 366.318 218.031 364.644 218.031H307C305.327 218.031 303.839 216.551 303.839 214.885V161.025C303.839 159.359 305.327 157.878 307 157.878H364.644C366.318 157.878 367.806 159.359 367.806 161.025ZM310.161 191.564H361.297V164.171H310.161V191.564ZM335.822 195.451H311.835C311.091 195.451 310.347 196.191 310.347 196.932C310.347 197.672 311.091 198.412 311.835 198.412H335.822C336.566 198.412 337.31 197.672 337.31 196.932C337.31 196.191 336.566 195.451 335.822 195.451ZM361.483 210.258C361.483 209.517 360.74 208.777 359.996 208.777H311.835C311.091 208.777 310.347 209.517 310.347 210.258C310.347 210.998 311.091 211.739 311.835 211.739H359.996C360.74 211.739 361.483 210.998 361.483 210.258ZM361.483 203.595C361.483 202.854 360.74 202.114 359.996 202.114H311.835C311.091 202.114 310.347 202.854 310.347 203.595C310.347 204.335 311.091 205.075 311.835 205.075H359.996C360.74 205.075 361.483 204.335 361.483 203.595Z" fill="#777777"/>
<path d="M506.154 76.2555H492.208C490.72 76.2555 489.605 77.3661 489.605 78.8467V108.646C489.605 110.126 490.72 111.237 492.208 111.237H506.154C507.642 111.237 508.758 110.126 508.758 108.646V78.8467C508.572 77.3661 507.456 76.2555 506.154 76.2555ZM499.088 109.571C498.344 109.571 497.787 109.016 497.787 108.275C497.787 107.535 498.344 106.98 499.088 106.98C499.832 106.98 500.39 107.535 500.39 108.275C500.39 108.831 499.832 109.571 499.088 109.571ZM506.154 105.314H492.208V78.8467H506.154V105.314Z" fill="#E8E8E8"/>
<path d="M553.942 186.567C552.268 186.567 550.595 185.456 550.037 183.79C542.599 163.246 529.769 145.293 513.033 131.411C511.174 129.93 510.988 127.339 512.475 125.673C513.963 123.823 516.566 123.637 518.24 125.118C536.277 139.74 550.037 159.174 557.847 181.014C558.591 183.235 557.475 185.456 555.43 186.382C554.872 186.382 554.5 186.567 553.942 186.567Z" fill="#E8E8E8"/>
<path d="M317.044 484C291.383 484 266.094 480.113 241.549 472.525C239.317 471.784 238.201 469.563 238.759 467.342C239.503 465.121 241.735 464.011 243.966 464.566C271.3 473.08 299.565 476.782 328.015 475.486C330.246 475.301 332.292 477.152 332.292 479.373C332.478 481.594 330.618 483.63 328.387 483.63C324.668 483.815 320.763 484 317.044 484Z" fill="#E8E8E8"/>
<path d="M353.859 481.779C351.814 481.779 349.954 480.298 349.768 478.077C349.582 475.856 351.07 473.82 353.487 473.45L358.694 472.895C360.925 472.71 362.971 474.19 363.343 476.597C363.529 478.818 362.041 480.854 359.624 481.224L354.417 481.779C354.231 481.779 354.045 481.779 353.859 481.779Z" fill="#E8E8E8"/>
<path d="M7.99485 224.88C5.94941 224.88 4.27587 223.399 3.90397 221.363C0.928784 202.114 -0.372859 182.68 0.184988 163.246C0.184988 161.025 2.23043 159.174 4.46182 159.174C6.69321 159.174 8.5527 161.21 8.5527 163.431C8.1808 182.31 9.29649 201.374 12.2717 220.067C12.6436 222.288 11.156 224.509 8.73864 224.88C8.36675 224.694 8.1808 224.88 7.99485 224.88Z" fill="#E8E8E8"/>
<path d="M232.992 82.3634C232.063 82.3634 230.947 81.9932 230.203 81.2529C217.373 69.9626 203.427 59.968 188.737 51.6391C186.691 50.5286 186.133 47.9374 187.249 45.9014C188.365 43.8655 190.968 43.3102 193.013 44.4208C208.261 53.1198 222.765 63.4846 235.782 75.145C237.455 76.6257 237.641 79.2169 236.154 81.0678C235.224 81.8081 234.108 82.3634 232.992 82.3634Z" fill="#E8E8E8"/>
<path d="M17.2933 337.412C16.9214 337.042 16.5495 337.042 16.1776 337.412L9.48343 343.52C9.29749 343.705 9.29749 343.89 9.29749 344.26V353.7C9.29749 354.255 9.66938 354.625 10.2272 354.625H14.876C15.4338 354.625 15.8057 354.255 15.8057 353.7V349.257H17.6652V353.7C17.6652 354.255 18.0371 354.625 18.5949 354.625H23.4296C23.9875 354.625 24.3594 354.255 24.3594 353.7V344.26C24.3594 344.075 24.1734 343.705 23.9875 343.705L17.2933 337.412Z" fill="#E8E8E8"/>
<path d="M159.356 156.768C160.658 161.58 164.005 166.022 168.654 167.318C163.819 160.655 162.146 151.956 163.819 144.182C164.563 141.036 165.865 137.889 166.422 134.743C166.98 131.596 166.794 128.079 164.935 125.303C165.865 126.599 163.075 132.522 162.517 133.817C161.402 136.223 159.728 138.259 158.984 140.85C157.683 145.663 158.055 152.141 159.356 156.768Z" fill="black"/>
<path d="M50.9482 315.572C35.7004 365.36 33.2831 408.67 33.2831 408.67C33.2831 408.67 84.2331 445.502 160.286 430.14C160.286 430.14 148.943 333.525 148.943 334.636C148.571 335.931 50.9482 315.572 50.9482 315.572Z" fill="black"/>
<path d="M61.3599 317.793C50.5748 349.258 44.8104 382.203 44.2526 415.333C44.8104 415.703 45.5542 416.074 46.298 416.444C46.6699 396.084 48.9013 375.725 52.9922 355.921C55.0376 355.55 68.7978 352.404 72.8887 328.158C72.8887 327.603 72.5168 327.047 71.959 327.047C71.4011 327.047 70.8433 327.417 70.8433 327.973C67.4962 348.702 56.7112 352.959 53.3641 353.885C55.9674 341.854 59.3144 330.194 63.2194 318.533C62.8475 318.163 62.1037 317.978 61.3599 317.793Z" fill="black"/>
<path d="M175.349 155.472C173.489 145.293 172.373 134.373 172.373 123.638C172.373 112.532 174.233 101.427 172.373 90.3221C169.956 76.0704 160.659 62.9293 147.27 56.8215C130.349 49.0479 107.477 52.9347 93.531 64.7802C76.2378 79.5871 64.8949 101.427 62.8494 124.193C61.9197 134.558 62.6635 145.848 57.085 154.732C50.9487 164.727 38.4901 169.169 31.9819 178.793C24.7299 189.528 26.9613 204.705 34.7711 215.07C42.581 225.435 54.6677 231.728 67.1263 235.43C83.3038 240.242 100.969 241.352 117.333 236.91C132.394 232.838 145.783 223.584 157.312 213.404C165.493 206.186 169.77 196.747 174.047 186.752C178.696 176.017 177.58 166.948 175.349 155.472Z" fill="black"/>
<path d="M161.401 182.68C170.141 186.012 174.976 194.341 179.624 208.037C184.273 221.733 202.682 331.119 202.682 331.119L160.1 318.903L161.401 182.68Z" fill="#536C87"/>
<path d="M161.401 182.68C156.939 180.089 136.67 171.575 118.447 169.539C118.447 169.539 98.7365 170.835 83.6746 174.166C80.8853 174.721 76.4226 188.788 71.4019 207.852C59.8731 252.272 45.741 324.826 45.741 324.826C45.741 324.826 79.0259 351.479 153.22 340.003L164.376 253.198L168.839 228.396L161.401 182.68Z" fill="#536C87"/>
<path d="M106.363 173.241L98.3668 128.08C98.3668 128.08 80.5156 134.187 79.214 119.566C77.9124 106.61 92.0445 105.684 98.9246 111.792C98.9246 111.792 86.8379 66.8161 126.073 63.2995C165.122 59.7828 165.494 113.088 165.494 126.044C165.68 148.809 149.317 159.729 137.416 160.655L138.346 174.536C138.346 174.536 139.276 186.752 127.747 187.122C112.127 188.047 106.363 173.241 106.363 173.241Z" fill="#FFD8BA"/>
<path d="M161.59 112.717C161.59 112.717 177.953 102.167 180.742 117.345C183.904 134.002 160.846 129.005 160.846 129.005L161.59 112.717Z" fill="#FFD8BA"/>
<path d="M122.91 111.607C122.539 113.828 124.212 116.049 126.443 116.419C128.675 116.789 130.906 115.123 131.278 112.902C131.65 110.681 129.976 108.46 127.745 108.09C125.514 107.72 123.282 109.386 122.91 111.607Z" fill="black"/>
<path d="M143.736 111.422C143.364 113.643 145.037 115.864 147.269 116.234C149.5 116.604 151.732 114.939 152.104 112.718C152.475 110.496 150.802 108.275 148.571 107.905C146.153 107.535 144.108 109.201 143.736 111.422Z" fill="black"/>
<path d="M138.53 125.488C138.158 125.488 137.6 125.118 137.6 124.563C137.414 124.008 137.786 123.267 138.53 123.267C140.576 122.897 141.691 122.157 142.249 121.231C142.993 119.751 142.249 116.974 140.204 113.088C139.832 112.532 140.204 111.792 140.576 111.607C141.133 111.237 141.877 111.422 142.063 111.977C144.48 116.604 145.224 119.751 144.109 122.157C143.179 124.193 140.947 124.933 138.902 125.488C138.716 125.488 138.716 125.488 138.53 125.488Z" fill="black"/>
<path d="M139.459 131.966C136.111 131.596 132.764 129.931 130.533 127.524C130.161 127.154 130.161 126.414 130.533 125.859C130.905 125.488 131.649 125.488 132.206 125.859C134.438 128.08 137.599 129.56 140.76 129.745C141.504 129.745 141.876 130.301 141.876 130.856C141.876 131.411 141.318 131.966 140.76 131.966C140.202 131.966 139.83 131.966 139.459 131.966Z" fill="black"/>
<path d="M164.565 126.784C164.007 126.784 163.449 126.229 163.635 125.488C164.007 121.972 164.007 118.455 163.635 114.939C163.635 114.383 164.007 113.828 164.565 113.643C165.123 113.643 165.681 114.013 165.867 114.568C166.238 118.27 166.238 121.972 165.867 125.674C165.867 126.229 165.309 126.784 164.565 126.784Z" fill="black"/>
<path d="M165.494 120.676C164.937 120.676 164.565 120.306 164.565 119.751C164.565 119.196 164.937 118.64 165.494 118.455L171.073 117.715C171.631 117.53 172.189 118.085 172.375 118.64C172.375 119.196 172.003 119.751 171.445 119.936L165.866 120.676C165.68 120.676 165.68 120.676 165.494 120.676Z" fill="black"/>
<path d="M95.205 122.157C94.6472 122.157 94.2753 121.602 94.2753 121.046C94.0893 119.195 92.9736 117.345 91.3001 116.419C89.6266 115.494 87.5811 115.309 85.7216 116.049C85.1638 116.234 84.42 116.049 84.234 115.494C84.0481 114.938 84.234 114.198 84.7919 114.013C87.2092 112.903 90.1844 113.088 92.4158 114.383C94.6472 115.679 96.3207 118.27 96.5067 120.861C96.5067 121.416 96.1348 121.972 95.391 122.157C95.391 122.157 95.391 122.157 95.205 122.157Z" fill="black"/>
<path d="M89.998 120.861C89.812 120.861 89.6261 120.676 89.4401 120.676C88.8823 120.306 88.8823 119.566 89.2542 119.01L91.8575 115.679C92.2294 115.124 92.9732 115.124 93.531 115.494C94.0888 115.864 94.0889 116.604 93.717 117.16L91.1137 120.306C90.7418 120.676 90.3699 120.861 89.998 120.861Z" fill="black"/>
<path d="M121.424 98.8361C121.052 98.8361 120.68 98.651 120.494 98.2808C120.122 97.7256 120.308 96.8001 120.866 96.43C125.143 93.6537 130.907 93.4686 135.37 95.8747C135.928 96.2449 136.3 96.9852 135.928 97.7256C135.556 98.2808 134.812 98.651 134.069 98.2808C130.536 96.43 125.701 96.43 122.168 98.651C121.982 98.8361 121.796 98.8361 121.424 98.8361Z" fill="black"/>
<path d="M144.852 99.9466C144.481 99.9466 144.295 99.7615 144.109 99.5764C143.551 99.0211 143.551 98.2808 144.109 97.7255C148.014 94.0238 154.522 94.0238 158.427 97.5405C158.985 98.0957 158.985 98.8361 158.427 99.3913C157.869 99.9466 157.125 99.9466 156.567 99.3913C153.778 96.8001 148.757 96.8001 145.968 99.3913C145.596 99.9466 145.224 99.9466 144.852 99.9466Z" fill="black"/>
<path d="M114.913 143.442C111.008 143.627 106.917 141.591 104.872 138.259C102.269 134.187 102.455 129.005 102.455 124.193C102.269 119.381 101.153 116.049 98.9216 111.792C94.4588 103.648 87.9506 96.2448 87.9506 96.2448L107.475 62.9293L119.748 58.6723L134.438 57.932L147.64 63.4846L158.053 70.1477L166.421 85.6949L168.652 98.2807L164.934 110.867C164.934 110.867 143.921 95.5045 140.946 79.0318C140.946 79.0318 128.487 98.4658 110.264 112.717C110.636 116.789 110.45 118.27 109.893 121.046C109.335 123.823 108.405 126.414 107.847 129.19C107.289 131.966 107.103 134.928 108.219 137.519C109.149 140.295 111.752 142.331 114.913 143.442Z" fill="black"/>
<path d="M103.943 181.199C103.943 181.199 93.902 158.619 103.571 158.434L104.315 162.691C104.315 162.691 127.001 170.835 137.6 167.873L137.228 162.506C137.228 162.506 142.063 161.95 142.621 166.578C143.178 171.205 144.294 185.641 141.691 189.898C138.902 194.155 109.708 195.081 103.943 181.199Z" fill="#536C87"/>
<path d="M162.704 261.712C162.332 261.712 161.96 261.527 161.774 261.342C161.402 260.786 161.588 260.231 162.146 259.861C162.332 259.676 177.022 249.866 174.977 234.689C172.745 218.957 165.121 197.302 165.121 197.117C164.935 196.562 165.121 196.006 165.679 195.821C166.237 195.636 166.795 195.821 166.981 196.377C166.981 196.562 174.791 218.402 177.022 234.504C179.253 250.977 164.006 261.157 163.262 261.712C163.076 261.712 162.89 261.712 162.704 261.712Z" fill="black"/>
<path d="M125.7 185.271C117.147 185.271 108.779 182.495 101.899 177.312C101.527 176.942 101.341 176.387 101.713 175.832C102.085 175.462 102.643 175.277 103.2 175.647C113.428 183.42 128.304 185.271 140.018 180.274C140.576 180.089 141.134 180.274 141.32 180.829C141.506 181.384 141.32 181.94 140.762 182.125C135.927 184.346 130.907 185.271 125.7 185.271Z" fill="black"/>
<path d="M108.035 173.981C107.478 173.981 107.106 173.611 107.106 173.056L106.362 166.948C106.362 166.392 106.734 165.837 107.292 165.837C107.85 165.837 108.407 166.207 108.407 166.763L109.151 172.87C109.151 173.426 108.779 173.981 108.035 173.981Z" fill="black"/>
<path d="M113.614 174.906C113.056 174.906 112.684 174.536 112.684 173.981L111.94 170.094C111.94 169.539 112.312 168.984 112.87 168.984C113.428 168.984 113.986 169.354 113.986 169.909L114.73 173.796C114.73 174.166 114.358 174.721 113.614 174.906C113.8 174.906 113.614 174.906 113.614 174.906Z" fill="black"/>
<path d="M384.911 217.846C377.102 227.656 365.945 279.85 365.945 279.85L407.783 262.822L384.911 217.846Z" fill="#536C87"/>
<path d="M445.344 400.156L447.389 427.734C447.389 427.734 522.885 436.618 570.674 417.924C570.674 417.924 574.393 386.46 565.281 364.249L445.344 400.156Z" fill="black"/>
<path d="M553.753 423.107C555.055 404.598 555.055 386.09 553.939 367.581L551.894 368.136C552.452 377.391 552.824 386.46 552.824 395.714C542.968 392.938 540.923 371.838 540.923 371.653V371.468L538.877 372.023C539.063 374.429 541.667 395.159 552.824 397.75C552.824 406.449 552.452 414.963 551.708 423.662C552.452 423.477 553.009 423.292 553.753 423.107Z" fill="black"/>
<path d="M472.123 392.012C471.751 397.75 471.565 408.115 475.656 413.297C476.957 414.963 478.631 416.074 480.49 416.444V429.585C481.234 429.585 481.792 429.585 482.536 429.585V390.532C482.536 389.976 482.164 389.421 481.42 389.421C480.862 389.421 480.304 389.791 480.304 390.532V414.408C479.003 414.038 478.073 413.297 477.143 412.187C473.424 407.189 473.61 396.825 474.168 391.457L472.123 392.012Z" fill="black"/>
<path d="M402.948 260.971L384.911 217.846C384.911 217.846 406.295 186.752 451.666 176.757C470.819 172.5 515.633 178.423 525.116 184.161L535.529 252.828C535.529 252.828 559.703 324.456 571.046 355.365C574.951 365.915 576.996 371.653 576.996 371.653L439.208 408.3L402.948 260.971Z" fill="#536C87"/>
<path d="M309.601 248.941C311.461 241.722 316.481 237.465 321.502 239.131C326.522 240.797 325.965 233.579 330.799 236.355C335.634 239.131 340.097 233.023 343.258 238.391C346.419 243.758 337.679 253.753 337.679 253.753L309.601 248.941Z" fill="#FFD8BA"/>
<path d="M256.792 405.894C253.817 412.742 248.052 415.889 243.403 413.482C238.755 411.076 238.011 418.295 233.734 414.778C229.457 411.261 224.065 416.444 221.833 410.521C219.788 404.783 229.829 396.454 229.829 396.454L256.792 405.894Z" fill="#FFD8BA"/>
<path d="M437.536 393.308C332.475 416.814 221.463 414.593 117.331 386.83L132.393 225.065C226.669 250.236 327.268 252.272 422.474 230.802L437.536 393.308Z" fill="#FFBA8B"/>
<path d="M223.509 412.927C220.533 409.596 229.459 399.416 231.876 400.156C234.294 400.896 233.178 405.709 233.178 405.709C233.178 405.709 236.711 399.971 240.244 400.341C243.033 400.711 241.36 405.709 241.36 405.709C241.36 405.709 247.496 400.156 250.471 400.711C253.446 401.267 250.285 404.968 250.285 404.968C250.285 404.968 263.116 399.971 254.19 410.151L245.079 410.706L235.223 411.632L223.509 412.927Z" fill="#FFD8BA"/>
<path d="M341.213 236.355C344.746 239.131 337.68 250.607 335.263 250.237C332.845 249.866 333.031 244.869 333.031 244.869C333.031 244.869 330.614 251.162 326.895 251.347C324.106 251.532 324.849 246.35 324.849 246.35C324.849 246.35 319.829 252.828 316.854 252.828C313.878 252.828 316.296 248.571 316.296 248.571C316.296 248.571 304.581 255.604 311.461 244.129L320.387 242.093L329.87 239.502L341.213 236.355Z" fill="#FFD8BA"/>
<path d="M384.168 92.173C384.168 92.173 385.284 103.833 389.375 128.635C391.792 143.997 395.883 88.6564 395.883 88.6564L384.168 92.173Z" fill="black"/>
<path d="M392.907 129.745C392.907 129.745 374.87 121.787 374.498 137.519C374.126 154.732 396.254 146.033 396.254 146.033L392.907 129.745Z" fill="#FFD8BA"/>
<path d="M458.175 181.57L458.919 135.113C458.919 135.113 477.7 138.259 476.77 123.638C475.84 110.496 461.708 111.792 455.944 119.01C455.944 119.01 460.779 71.9986 420.985 74.7749C406.853 75.7003 396.812 80.5125 392.349 90.137C390.118 94.9492 390.118 98.4659 390.118 108.646C390.118 123.267 390.676 137.889 391.606 143.997C395.139 166.763 413.362 175.091 425.262 174.166L426.564 188.233C426.564 188.233 427.68 200.633 439.208 199.153C454.642 197.302 458.175 181.57 458.175 181.57Z" fill="#FFD8BA"/>
<path d="M446.459 100.502C446.459 100.502 443.484 130.116 452.41 135.668L455.757 119.01L452.968 105.869L446.459 100.502Z" fill="black"/>
<path d="M410.385 121.972C411.687 124.563 410.013 127.709 407.038 128.08C405.178 128.265 403.505 127.339 402.761 125.673C401.459 123.082 403.133 119.936 406.108 119.566C407.968 119.381 409.641 120.491 410.385 121.972Z" fill="black"/>
<path d="M430.098 121.046C430.842 123.267 429.54 125.674 427.309 126.414C425.078 127.154 422.66 125.859 421.917 123.638C421.173 121.417 422.474 119.01 424.706 118.27C426.937 117.53 429.355 118.825 430.098 121.046Z" fill="black"/>
<path d="M460.594 128.635C460.036 128.635 459.664 128.265 459.664 127.709C459.478 125.118 460.594 122.342 462.64 120.676C464.685 119.01 467.474 118.455 470.077 119.01C470.635 119.195 471.007 119.751 470.821 120.306C470.635 120.861 470.077 121.231 469.52 121.046C467.66 120.491 465.429 121.046 463.941 122.342C462.454 123.637 461.524 125.673 461.71 127.524C461.71 128.08 461.152 128.45 460.594 128.635Z" fill="black"/>
<path d="M465.612 126.414C465.426 126.414 465.054 126.414 464.869 126.044L461.893 123.082C461.521 122.712 461.521 121.972 461.893 121.602C462.265 121.231 463.009 121.231 463.381 121.602L466.356 124.378C466.728 124.748 466.728 125.488 466.356 125.859C466.17 126.229 465.984 126.414 465.612 126.414Z" fill="black"/>
<path d="M419.312 107.535C418.94 107.535 418.755 107.35 418.569 107.165C418.197 106.795 418.383 106.054 418.754 105.684C422.845 102.538 428.61 101.797 433.258 103.833C433.816 104.018 434.002 104.574 433.816 105.129C433.63 105.684 433.073 105.869 432.515 105.684C428.424 104.018 423.589 104.574 420.056 107.165C419.684 107.535 419.498 107.535 419.312 107.535Z" fill="black"/>
<path d="M394.951 112.718C394.765 112.718 394.58 112.718 394.394 112.533C394.022 112.162 393.836 111.607 394.208 111.052C397.369 106.98 404.063 105.869 408.34 108.831C408.898 109.201 408.897 109.756 408.526 110.311C408.154 110.682 407.596 110.867 407.038 110.497C403.505 108.09 398.298 108.831 395.695 112.162C395.695 112.533 395.323 112.718 394.951 112.718Z" fill="black"/>
<path d="M410.76 136.408C410.388 136.408 410.203 136.223 410.017 136.038C408.901 134.558 408.901 133.262 409.087 132.522C409.459 131.041 410.76 130.301 411.504 129.93L412.992 121.787C413.178 121.231 413.55 120.861 414.107 121.046C414.665 121.231 415.037 121.602 414.851 122.157L413.364 130.856C413.364 131.226 412.992 131.411 412.806 131.596C412.434 131.781 411.318 132.337 411.132 133.262C410.946 133.817 411.132 134.373 411.69 134.928C412.062 135.298 411.876 136.038 411.504 136.408C411.132 136.408 410.946 136.408 410.76 136.408Z" fill="black"/>
<path d="M412.991 147.143C412.248 147.143 411.69 146.588 411.69 145.848C411.69 145.108 412.248 144.552 412.991 144.552C418.198 144.552 420.615 142.886 421.545 139.185C421.731 138.444 422.289 138.074 423.033 138.259C423.777 138.444 424.148 139 423.962 139.74C422.847 144.737 419.314 147.143 412.991 147.143Z" fill="black"/>
<path d="M420.058 364.064L411.876 366.471C411.876 366.471 395.14 370.357 392.723 373.319C390.306 376.095 377.475 385.905 379.335 386.645C380.45 387.2 388.26 384.609 393.467 382.758C392.723 383.869 391.793 384.979 390.864 386.275C389.562 388.126 375.988 408.115 378.777 410.151C380.265 412.002 386.401 407.19 386.401 407.19C386.401 407.19 388.632 412.742 397.744 407.93C398.487 407.56 399.045 407.19 399.417 406.819C401.091 405.709 402.206 404.598 402.206 404.598C402.206 404.598 402.578 407.19 404.438 408.3C406.111 409.411 410.202 404.969 410.202 404.969L431.215 377.206L420.058 364.064Z" fill="#FFD8BA"/>
<path d="M420.057 364.064L487.743 301.69L525.863 185.456C525.863 185.456 542.226 215.625 542.784 245.239C543.156 274.853 516.937 320.199 516.937 320.199C516.937 320.199 497.04 349.072 430.842 377.02L420.057 364.064Z" fill="#FFD8BA"/>
<path d="M525.119 184.346C539.809 192.119 545.388 229.877 546.318 248.756C547.247 267.82 533.673 297.248 533.673 297.248L493.136 270.596L525.119 184.346Z" fill="#536C87"/>
<path d="M498.342 266.524C498.156 266.524 498.156 266.524 497.97 266.524C497.412 266.339 497.226 265.784 497.226 265.228L521.028 192.304C521.214 191.749 521.771 191.564 522.329 191.564C522.887 191.749 523.073 192.304 523.073 192.86L499.272 265.784C499.086 266.154 498.714 266.524 498.342 266.524Z" fill="black"/>
<path d="M535.347 297.989C535.347 297.989 535.161 297.989 534.975 297.989C534.417 297.803 534.045 297.248 534.231 296.693L538.694 281.331C538.88 280.776 539.438 280.405 539.996 280.59C540.553 280.776 540.925 281.331 540.739 281.886L536.277 297.248C536.277 297.803 535.719 297.989 535.347 297.989Z" fill="black"/>
<path d="M83.6753 174.166C73.2621 176.017 60.4317 182.31 55.411 191.194C50.3904 199.893 7.06427 270.596 5.01883 285.773C2.97339 300.95 11.3411 309.649 21.0105 310.389C30.4939 311.13 96.5058 303.911 96.5058 303.911L93.7165 264.858L63.035 269.115L83.6753 174.166Z" fill="#536C87"/>
<path d="M47.7888 272.077C47.4169 272.077 47.045 271.891 46.8591 271.521C46.6731 271.151 46.6731 270.781 46.8591 270.411C47.231 270.041 75.3093 232.098 77.1688 222.844C79.2142 213.774 75.8671 198.042 71.5903 188.048C71.4043 187.492 71.5903 186.937 72.1481 186.752C72.706 186.567 73.2638 186.752 73.4498 187.307C77.9126 197.487 81.2596 213.774 79.2142 223.399C77.3547 231.913 55.4127 262.267 49.8342 270.041L93.7182 268.19C94.2761 268.19 94.8339 268.56 94.8339 269.115C94.8339 269.67 94.462 270.226 93.9042 270.226L47.7888 272.077Z" fill="black"/>
<path d="M53.3666 308.353C52.8088 308.353 52.4369 307.983 52.4369 307.428C52.4369 306.873 52.8088 306.317 53.3666 306.317L90.3705 303.541C90.9283 303.541 91.4862 303.911 91.4862 304.467C91.4862 305.022 91.1143 305.577 90.5564 305.577L53.3666 308.353Z" fill="black"/>
<path d="M96.3184 276.704L103.942 272.817C103.942 272.817 118.818 264.118 122.537 264.488C126.256 264.858 142.248 263.007 141.504 264.858C140.946 265.969 133.694 269.486 128.488 271.707C129.789 271.892 131.277 272.077 132.764 272.447C134.996 272.817 158.797 277.999 158.053 281.331C158.239 283.737 150.616 284.477 150.616 284.477C150.616 284.477 152.847 290.03 142.992 292.806C142.248 292.991 141.504 293.177 140.946 293.177C139.087 293.547 137.413 293.362 137.413 293.362C137.413 293.362 138.901 295.583 138.343 297.619C137.971 299.655 132.021 299.099 132.021 299.099L97.4341 293.362L96.3184 276.704Z" fill="#FFD8BA"/>
<path d="M371.338 61.2635C369.292 67.3714 367.99 73.8494 368.734 80.3274C369.478 86.8054 372.267 93.0983 377.288 97.1702C381.937 100.872 387.887 102.538 393.837 103.093C403.135 104.018 413.176 102.353 419.87 95.6895C418.941 97.9106 418.197 100.132 417.267 102.353C423.589 103.093 430.283 101.057 435.304 96.9851C437.535 102.353 441.44 109.571 450.924 110.682L455.758 119.751C455.758 119.751 459.105 115.124 463.568 114.198C463.382 110.682 464.312 106.795 465.428 103.463C466.543 100.132 467.845 96.8001 468.589 93.2834C469.333 89.7668 469.705 86.2501 468.775 82.7335C467.845 79.2169 465.614 76.0704 462.267 74.7748C458.92 73.2941 454.829 74.0345 452.597 76.8108C453.713 70.1477 449.064 63.4846 443.3 59.9679C436.048 55.5259 427.494 54.2303 419.126 55.3408C415.036 55.896 410.945 57.0066 406.854 58.4872C402.763 60.153 398.858 62.374 394.581 63.4846C390.49 64.5951 385.656 64.5951 382.309 61.8188C381.751 65.5205 382.495 69.5924 385.098 72.3687C380.077 69.5924 375.057 65.3354 371.338 61.2635Z" fill="black"/>
<path d="M420.986 190.269C420.986 190.269 416.895 177.683 425.821 177.683L426.193 183.791C426.193 183.791 444.044 185.641 458.362 173.056V166.207C458.362 166.207 465.8 165.652 466.73 170.094C467.659 174.536 467.659 194.34 461.709 200.633C455.759 206.741 431.771 208.037 426.751 206.556C421.73 204.89 420.986 190.269 420.986 190.269Z" fill="#536C87"/>
<path d="M435.119 200.078C431.4 200.078 427.681 199.708 424.148 198.783C423.59 198.597 423.218 198.042 423.404 197.487C423.59 196.932 424.148 196.562 424.705 196.747C437.908 199.893 452.04 196.932 462.825 188.788C463.197 188.418 463.941 188.603 464.313 188.973C464.685 189.343 464.499 190.084 464.127 190.454C455.759 196.747 445.346 200.078 435.119 200.078Z" fill="black"/>
<path d="M454.456 186.382C453.898 186.382 453.341 186.012 453.341 185.271V181.384C453.341 180.829 453.713 180.274 454.456 180.274C455.014 180.274 455.572 180.644 455.572 181.384V185.271C455.386 186.012 455.014 186.382 454.456 186.382Z" fill="black"/>
<path d="M459.479 182.125C458.921 182.125 458.549 181.755 458.549 181.199L458.177 178.423C458.177 177.868 458.549 177.312 459.107 177.312C459.665 177.312 460.222 177.683 460.222 178.238L460.594 181.014C460.594 181.569 460.222 181.94 459.479 182.125C459.665 182.125 459.665 182.125 459.479 182.125Z" fill="black"/>
<path d="M390.12 142.701C389.562 142.701 389.19 142.331 389.19 141.776L388.446 133.817C388.446 133.262 388.818 132.707 389.376 132.707C389.934 132.707 390.492 133.077 390.492 133.632L391.235 141.591C391.235 142.146 390.677 142.701 390.12 142.701Z" fill="black"/>
<path d="M389.377 138.259L382.125 137.519C381.568 137.519 381.196 136.964 381.196 136.408C381.196 135.853 381.754 135.483 382.311 135.483L389.563 136.223C390.121 136.223 390.493 136.779 390.493 137.334C390.493 137.889 389.935 138.259 389.377 138.259Z" fill="black"/>
<path d="M164.377 283.367C165.306 282.256 166.608 281.886 168.468 282.256C170.327 282.812 171.629 283.737 172.373 285.033C172.744 285.588 172.93 286.143 173.116 286.513C173.302 287.069 173.302 287.624 173.116 288.179C171.257 291.881 169.769 295.768 168.468 299.469C167.166 303.356 166.05 307.058 165.306 310.574C163.633 317.052 162.517 322.79 162.145 327.232C161.773 331.859 161.402 334.08 161.587 334.08C161.773 334.08 162.145 333.895 162.517 333.525C162.889 333.155 163.261 332.415 163.633 331.674C164.377 330.194 165.306 327.973 166.608 325.381C167.724 322.79 169.025 320.014 170.327 317.238C171.815 314.276 173.302 311.315 174.79 308.724C176.463 305.947 178.137 303.541 179.81 301.875C180.554 301.135 181.484 300.765 182.786 300.95C184.087 300.95 185.203 301.505 185.947 302.431C186.319 302.801 186.505 303.356 186.691 303.911C186.877 304.467 186.877 305.022 186.691 305.762C185.947 307.983 185.203 310.945 184.459 314.276C183.715 317.608 182.972 321.124 182.228 324.641C181.856 326.492 181.67 328.343 181.298 330.194C181.112 332.044 180.926 333.71 180.74 335.376C180.368 338.337 180.368 340.929 180.554 342.964C180.74 345 181.298 346.296 182.228 346.481C182.414 346.481 182.786 345.926 183.158 344.815C183.529 343.705 183.901 341.854 184.645 339.818C185.761 335.746 187.62 330.379 190.224 323.716C192.641 316.867 196.36 309.464 201.381 301.505C201.567 301.135 201.938 300.765 202.496 300.58C202.868 300.21 203.24 300.025 203.798 299.839C205.657 299.284 207.331 299.469 209.19 300.395C210.678 301.135 211.236 302.06 211.05 302.986C211.05 303.171 210.864 303.541 210.678 303.726C209.748 304.837 208.447 306.688 206.959 309.464C205.471 312.24 203.984 315.387 202.31 318.903C201.381 320.754 200.451 322.79 199.521 324.826C198.591 326.862 197.662 328.713 196.732 330.749C195.058 334.451 193.385 337.782 191.711 340.929C190.224 344.075 188.736 346.296 187.62 347.592C186.505 348.887 185.017 349.442 183.344 349.442C182.972 349.442 182.414 349.442 182.042 349.257C181.112 349.072 180.368 348.517 179.996 347.592C178.881 345.371 178.323 342.409 178.323 339.078C178.323 335.746 178.509 332.229 179.067 328.713C179.625 325.381 180.182 322.05 180.926 318.903C181.67 315.757 182.414 313.351 182.786 311.315C183.158 310.204 183.344 309.464 183.529 308.724C183.715 308.168 183.715 307.798 183.715 307.613C183.715 307.613 183.529 307.798 183.158 308.353C182.786 308.909 182.414 309.464 181.856 310.389C180.926 311.87 179.81 313.906 178.509 316.312C177.207 318.718 175.906 321.309 174.418 323.716C172.93 326.307 171.629 328.713 170.327 330.934C169.025 333.155 168.096 334.821 167.352 335.931C166.98 336.486 166.608 336.857 166.05 337.227C165.492 337.597 164.935 337.967 164.377 338.152C162.517 338.893 160.658 338.893 158.798 338.337C156.939 337.967 155.823 337.042 155.823 335.746C155.637 333.895 155.823 330.749 156.567 326.677C157.125 322.605 158.054 318.163 158.984 313.536C159.542 311.13 159.914 308.538 160.472 306.132C161.03 303.726 161.587 301.32 161.959 299.099C162.889 294.842 163.633 291.326 164.191 288.364C164.563 285.588 164.563 283.737 164.377 283.367Z" fill="white"/>
<path d="M219.977 296.508C220.721 296.138 221.465 295.953 222.022 296.138C222.394 296.138 222.58 296.323 222.766 296.323C223.696 296.693 224.44 297.248 224.998 297.804C225.741 298.359 227.415 298.729 229.646 299.099C232.064 299.469 234.109 299.654 236.155 299.654C236.526 299.654 236.712 299.84 236.712 300.21V300.395C236.712 300.58 236.526 300.765 236.526 300.765C234.481 301.32 232.436 301.505 230.204 301.32C227.973 301.135 226.299 300.95 225.37 301.135C225.184 301.32 224.998 301.876 224.812 302.616C224.626 303.356 224.254 304.282 223.882 305.577C223.324 307.798 222.58 310.575 221.651 313.906C220.907 317.238 219.977 320.569 219.233 323.901C218.304 328.158 217.374 331.859 216.816 335.191C216.258 338.523 215.886 340.558 216.072 341.114C216.444 341.484 217.56 341.669 219.791 341.669C222.022 341.484 223.696 341.114 225.37 340.558C225.927 340.558 226.113 340.929 226.113 341.484C226.113 342.039 225.927 342.409 225.37 342.78C223.696 343.52 221.837 343.89 219.977 343.89C218.118 343.89 216.816 343.89 216.072 343.89C215.886 344.075 215.7 344.815 215.7 345.926C215.7 347.036 215.886 348.147 215.886 349.443C216.072 350.368 216.258 351.293 216.444 352.034C216.63 352.774 217.002 353.329 217.374 353.329C217.932 353.514 219.419 353.329 221.651 352.959C223.882 352.589 225.741 352.034 227.229 351.664C227.229 351.849 227.415 352.034 227.415 352.219C227.415 352.404 227.229 352.774 227.043 352.959C225.37 353.7 223.324 354.255 221.093 354.81C218.861 355.365 217.374 355.736 216.63 355.736C216.072 355.736 215.328 355.736 214.77 355.55C213.655 355.365 212.353 354.995 211.237 354.44C209.192 353.515 207.89 352.589 207.333 351.293C206.961 348.147 206.775 345.001 206.775 341.484C206.775 338.152 207.147 334.821 207.704 331.489L207.89 330.009C208.82 324.271 210.308 318.718 212.167 313.166C214.399 306.873 216.816 301.32 219.977 296.508Z" fill="white"/>
<path d="M243.59 300.395C243.962 299.839 244.52 299.469 245.264 299.654C245.821 299.654 246.379 300.024 247.123 300.58C248.797 301.69 249.54 303.541 249.726 306.317C250.098 308.909 250.098 311.87 249.912 315.387C249.726 318.903 249.54 322.42 248.983 326.122C248.611 328.528 248.239 330.934 248.053 333.34C247.681 335.746 247.309 337.967 246.937 340.188C246.193 344.26 245.45 347.777 244.706 350.923C244.148 353.885 243.59 355.735 243.404 356.661C245.45 356.476 247.867 356.476 250.098 356.476C252.516 356.476 254.003 356.661 254.933 357.031C255.305 357.401 255.491 357.586 255.305 357.956C255.305 358.327 255.119 358.512 254.933 358.512C254.375 358.512 253.445 358.327 251.958 358.327C250.47 358.327 248.983 358.142 247.681 358.142C246.751 358.142 246.007 358.142 245.45 358.142C244.706 358.142 244.148 358.327 243.776 358.512C243.032 358.882 242.288 359.067 241.545 359.067C240.801 359.252 239.871 359.252 239.127 359.437C238.569 359.437 238.198 359.437 237.64 359.437C236.71 359.437 235.78 359.067 235.036 358.882C233.921 358.327 233.177 357.771 232.991 356.661C235.78 342.964 238.198 331.489 240.429 322.05C242.66 311.87 243.776 304.837 243.59 300.395Z" fill="white"/>
<path d="M281.526 317.423C281.34 317.978 280.782 318.533 280.039 318.718C279.295 318.903 278.923 318.718 278.737 317.978C279.109 316.312 279.295 314.461 279.295 312.425C279.295 310.389 278.923 308.538 278.179 307.058C277.807 306.132 277.249 305.577 276.692 305.022C275.948 304.467 275.204 304.096 274.274 304.096C272.601 303.911 271.299 305.577 270.183 308.724C269.068 311.87 268.324 315.572 267.766 319.644C267.394 321.865 267.208 324.086 267.022 326.122C266.836 328.343 266.65 330.193 266.65 332.044C266.65 333.525 266.65 335.191 266.836 337.227C267.022 339.263 267.208 341.114 267.58 343.149C268.138 347.036 269.254 350.368 270.555 353.514C271.857 356.661 273.345 358.327 274.832 358.327C275.762 358.327 276.32 357.771 277.063 356.291C277.621 354.995 278.179 353.329 278.551 351.663C278.737 350.553 278.923 349.442 279.109 348.147C279.295 347.036 279.295 345.926 279.295 345C279.481 344.63 279.853 344.445 280.411 344.63C280.968 344.815 281.34 345.185 281.34 345.741C281.34 347.036 281.154 348.887 280.782 351.663C280.597 354.44 279.853 356.661 278.551 358.512C277.993 359.252 277.435 359.992 276.692 360.362C275.948 360.918 275.204 361.103 274.088 361.103H273.716C271.671 361.103 269.997 360.548 268.324 359.807C266.65 358.882 264.977 357.771 263.675 356.291C261.258 353.514 259.398 349.813 258.097 345.371C256.981 340.928 256.423 336.116 256.609 331.489V330.749C256.795 327.047 257.353 322.975 258.469 318.718C259.77 314.091 261.63 310.204 264.047 307.243C265.349 305.577 266.836 304.467 268.51 303.541C269.811 302.801 271.299 302.616 272.787 302.616C273.159 302.616 273.53 302.616 273.902 302.801C277.435 303.356 279.853 305.022 280.782 307.798C281.712 310.019 282.084 313.351 281.526 317.423Z" fill="white"/>
<path d="M303.467 360.733H303.095C300.306 360.733 297.889 360.363 296.029 359.252C293.984 358.142 292.31 356.846 291.009 354.995C290.079 353.885 289.521 352.589 288.963 351.108C288.405 349.813 287.848 348.332 287.476 346.666C286.732 343.89 286.36 340.744 286.36 337.597C286.36 337.227 286.36 337.042 286.174 336.857C286.174 334.08 286.174 331.304 286.36 328.898C286.36 326.307 286.732 323.901 287.104 321.495C287.476 319.088 288.033 316.867 288.591 314.832C289.893 310.945 291.752 307.798 294.356 305.392C296.587 303.541 299.376 302.431 302.909 302.431C303.653 302.431 304.583 302.431 305.327 302.431C306.442 302.616 307.558 302.986 308.488 303.911C309.604 304.837 310.719 305.947 311.649 307.428C313.509 310.204 314.996 313.536 316.112 317.793C317.413 322.05 317.971 326.307 318.157 330.564V331.119C318.157 333.34 318.157 335.561 317.785 337.782C317.599 340.188 317.228 342.594 316.67 345.001C315.554 349.257 314.066 352.959 311.835 355.921C309.604 359.067 306.814 360.548 303.467 360.733ZM314.438 330.379V330.194C314.438 328.528 314.252 326.677 313.88 324.826C313.694 322.79 313.323 320.754 312.765 318.718C312.021 315.017 310.905 311.685 309.604 308.724C308.302 305.762 306.814 304.282 305.327 304.097H304.955C303.281 304.097 301.794 305.577 300.306 308.168C298.819 310.945 297.703 314.461 296.773 318.163C296.215 320.199 295.843 322.42 295.657 324.456C295.285 326.677 295.285 328.713 295.285 330.564C295.285 331.304 295.285 332.045 295.285 332.785C295.285 333.895 295.285 335.006 295.471 336.301C295.657 338.523 295.843 340.558 296.215 342.779C296.773 346.851 297.703 350.553 299.004 353.885C300.306 357.216 301.98 358.882 304.025 359.067H304.583C307.186 359.067 309.232 357.586 310.719 354.625C312.207 351.479 313.323 347.777 313.88 343.52C314.252 341.299 314.438 339.078 314.438 336.857C314.438 334.266 314.438 332.23 314.438 330.379Z" fill="white"/>
<path d="M320.574 301.69C320.76 300.765 321.318 300.21 322.248 300.025C322.434 300.025 322.806 300.025 323.178 300.025C324.665 300.025 325.967 300.765 326.711 302.061C327.083 303.726 327.455 305.762 328.012 308.353C328.384 310.76 328.942 313.351 329.314 315.757C330.058 319.644 330.616 322.975 330.988 326.122C331.545 329.268 331.731 330.934 331.917 331.119C331.917 330.009 332.103 327.787 332.475 324.641C332.847 321.309 333.405 317.978 333.963 314.646C334.335 312.425 334.893 310.389 335.264 308.539C335.636 306.688 336.194 305.207 336.752 304.282C337.124 303.726 337.682 303.171 338.797 303.171C339.913 302.986 340.843 303.356 341.773 303.911C342.331 304.282 342.702 304.652 343.074 305.207C343.446 305.762 343.818 306.503 344.004 307.243C344.19 308.539 344.562 310.389 344.934 312.981C345.306 315.572 345.678 318.348 346.049 321.309C346.235 322.79 346.421 324.271 346.793 325.937L347.351 330.379C347.723 332.97 348.095 335.006 348.467 336.857C348.839 338.708 348.839 339.448 349.025 339.633C349.025 339.448 349.211 339.078 349.397 338.522C349.397 337.782 349.583 337.042 349.768 335.931C349.954 333.895 350.14 331.304 350.698 328.158C351.07 325.011 351.628 321.68 352.372 318.348C353.116 314.831 354.045 311.685 355.347 308.539C356.463 305.392 358.136 302.986 359.996 301.32C360.925 300.395 362.227 300.21 363.715 300.765C365.202 301.32 366.318 302.431 367.062 303.911C367.434 305.022 367.806 306.688 368.177 308.724C368.363 309.464 368.363 310.389 368.363 311.315C368.735 314.646 368.921 318.163 369.107 322.05C369.107 324.086 369.293 326.307 369.293 328.343C369.293 330.564 369.479 332.6 369.665 334.636C369.851 338.522 370.037 342.039 370.409 345.371C370.781 348.517 371.153 350.738 371.71 352.219C372.082 353.514 371.524 354.44 369.851 354.81C369.479 354.81 369.293 354.995 369.107 354.995C367.806 355.18 366.69 354.81 365.574 354.255C365.202 353.885 364.644 353.514 364.458 353.144C364.087 352.774 363.901 352.219 363.715 351.478C362.785 346.481 362.227 341.854 361.855 337.412C361.483 332.97 361.297 328.898 361.297 325.196C361.297 318.348 361.483 312.981 362.041 308.909C362.599 304.837 362.599 302.801 362.041 302.616C361.111 302.431 360.182 303.356 359.252 305.207C358.322 307.058 357.392 309.464 356.649 312.425C356.277 313.906 355.719 315.757 355.347 317.423C354.975 319.274 354.603 320.939 354.231 322.79C353.487 326.307 352.93 329.823 352.558 333.34C352 336.857 351.814 339.818 351.628 342.039C351.442 342.779 351.256 343.335 351.07 343.89C350.698 344.445 350.512 344.815 349.954 345C349.025 345.556 347.909 345.556 346.607 345.186C345.306 344.63 344.562 344.075 344.19 343.15C343.26 340.929 342.516 338.152 341.959 335.006C341.401 331.859 341.029 328.713 340.657 325.381C340.285 322.235 340.099 319.274 339.913 316.497C339.727 313.721 339.541 311.5 339.355 309.649C339.169 308.724 339.169 307.983 338.983 307.428C338.797 306.873 338.612 306.688 338.426 306.688C337.868 306.688 337.124 308.168 336.38 311.315C335.636 314.461 335.079 317.793 334.335 321.495C333.963 324.456 333.591 327.417 333.219 330.009C333.033 332.785 332.847 334.451 333.033 335.376C333.591 337.782 333.963 340.188 334.521 342.224C335.078 344.26 335.45 346.481 335.822 348.887C335.822 349.628 335.636 350.368 335.45 350.923C335.264 351.664 334.893 352.219 334.521 352.774C333.405 354.44 331.917 355.55 330.058 355.921C328.384 356.291 327.269 355.921 326.897 354.44C325.967 351.664 325.223 348.332 324.665 344.63C324.479 343.52 324.293 342.409 324.108 341.299C323.736 338.522 323.364 335.746 323.178 332.97C322.806 328.158 322.434 323.531 322.062 318.903C321.876 314.461 321.504 310.574 321.318 307.613C321.132 305.947 320.946 304.652 320.946 303.541C320.946 302.616 320.76 301.875 320.574 301.69Z" fill="white"/>
<path d="M375.428 293.361C375.986 292.806 376.544 292.436 377.102 292.251C377.474 292.251 377.659 292.251 378.031 292.251C378.961 292.251 379.891 292.436 380.635 292.991C381.564 293.176 383.238 292.991 385.469 292.436C387.887 291.881 389.932 291.325 391.792 290.585C392.164 290.585 392.35 290.585 392.535 290.77V290.955C392.535 291.14 392.535 291.325 392.535 291.51C390.862 292.806 389.002 293.732 386.771 294.287C384.54 294.842 383.052 295.397 382.122 295.767C382.122 295.953 382.122 296.508 382.122 297.433C382.122 298.174 382.122 299.284 382.308 300.395C382.494 302.616 382.866 305.577 383.238 308.909C383.61 312.24 384.168 315.572 384.726 319.088C385.283 323.345 385.841 327.047 386.585 330.564C387.143 333.895 387.701 335.931 387.887 336.301C388.259 336.486 389.56 336.301 391.606 335.376C393.651 334.45 395.139 333.525 396.44 332.415C396.998 332.229 397.37 332.415 397.556 332.97C397.742 333.525 397.742 333.895 397.37 334.45C396.068 335.746 394.395 336.857 392.721 337.412C390.862 337.967 389.746 338.522 389.188 338.707C389.002 339.078 389.188 339.633 389.56 340.743C389.932 341.854 390.49 342.779 391.048 343.89C391.42 344.815 391.978 345.556 392.535 346.111C393.093 346.851 393.465 347.036 393.837 347.036C394.395 347.036 395.697 346.296 397.556 345.185C399.416 344.075 401.089 342.964 402.391 342.039C402.577 342.224 402.577 342.409 402.763 342.594C402.949 342.779 402.763 343.15 402.763 343.52C401.461 344.815 399.787 346.111 397.928 347.221C396.068 348.517 394.767 349.257 394.023 349.628C393.465 349.813 392.907 349.998 392.164 350.183C391.048 350.368 389.746 350.553 388.445 350.553C386.213 350.553 384.54 349.998 383.61 349.072C382.122 346.296 380.821 343.335 379.705 340.188C378.589 337.042 377.659 333.895 376.916 330.564L376.544 329.083C375.242 323.345 374.684 317.608 374.498 311.87C373.94 305.022 374.498 298.914 375.428 293.361Z" fill="white"/>
</svg>
