<svg width="16" height="16" viewBox="0 0 16 16" fill="none" xmlns="http://www.w3.org/2000/svg">
<path d="M13.9504 8.78339C13.9837 8.53339 14.0004 8.27506 14.0004 8.00006C14.0004 7.7334 13.9837 7.46673 13.9421 7.21673L15.6337 5.90006C15.7837 5.78339 15.8254 5.55839 15.7338 5.39173L14.1337 2.62506C14.0338 2.44173 13.8254 2.38339 13.6421 2.44173L11.6504 3.24173C11.2337 2.92506 10.7921 2.65839 10.3004 2.45839L10.0004 0.341728C9.96708 0.141728 9.80042 6.10352e-05 9.60042 6.10352e-05H6.40042C6.20042 6.10352e-05 6.04208 0.141728 6.00875 0.341728L5.70875 2.45839C5.21708 2.65839 4.76708 2.93339 4.35875 3.24173L2.36708 2.44173C2.18375 2.37506 1.97542 2.44173 1.87542 2.62506L0.28375 5.39173C0.18375 5.56673 0.217084 5.78339 0.38375 5.90006L2.07542 7.21673C2.03375 7.46673 2.00042 7.74173 2.00042 8.00006C2.00042 8.2584 2.01708 8.53339 2.05875 8.78339L0.367084 10.1001C0.217084 10.2167 0.175417 10.4417 0.267084 10.6084L1.86708 13.3751C1.96708 13.5584 2.17542 13.6167 2.35875 13.5584L4.35042 12.7584C4.76708 13.0751 5.20875 13.3417 5.70042 13.5417L6.00042 15.6584C6.04208 15.8584 6.20042 16.0001 6.40042 16.0001H9.60042C9.80042 16.0001 9.96708 15.8584 9.99208 15.6584L10.2921 13.5417C10.7837 13.3417 11.2338 13.0751 11.6421 12.7584L13.6337 13.5584C13.8171 13.6251 14.0254 13.5584 14.1254 13.3751L15.7254 10.6084C15.8254 10.4251 15.7837 10.2167 15.6254 10.1001L13.9504 8.78339ZM8.00042 11.0001C6.35042 11.0001 5.00042 9.65006 5.00042 8.00006C5.00042 6.35006 6.35042 5.00006 8.00042 5.00006C9.65042 5.00006 11.0004 6.35006 11.0004 8.00006C11.0004 9.65006 9.65042 11.0001 8.00042 11.0001Z" fill="#777777"/>
</svg>
