<svg width="11" height="7" viewBox="0 0 11 7" fill="none" xmlns="http://www.w3.org/2000/svg">
<path d="M2.76503 5.53C2.66569 5.53 2.56635 5.49198 2.49068 5.41631L0.113833 3.03939C-0.0379442 2.88769 -0.0379442 2.6424 0.113833 2.49069C0.265539 2.33899 0.510755 2.33899 0.662532 2.49069L2.76503 4.59319L7.24451 0.113779C7.39621 -0.0379265 7.64143 -0.0379265 7.79321 0.113779C7.94491 0.265556 7.94491 0.510773 7.79321 0.66255L3.03945 5.41631C2.96377 5.49198 2.86436 5.53 2.76503 5.53Z" fill="white"/>
<path d="M5.37884 6.53C5.27951 6.53 5.18017 6.49198 5.10449 6.41631L4.11383 5.42556C3.96206 5.27386 3.96206 5.02857 4.11383 4.87686C4.26554 4.72516 4.51076 4.72516 4.66253 4.87686L5.37884 5.59319L9.85834 1.11378C10.01 0.962074 10.2553 0.962074 10.407 1.11378C10.5587 1.26556 10.5587 1.51077 10.407 1.66255L5.65326 6.41631C5.57759 6.49198 5.47818 6.53 5.37884 6.53Z" fill="white"/>
</svg>
